Definition of a gtsummary Object
…
String that is made a table source note. The attribute "text_interpret" is either c("md", "html").

caption

String that is made into the table caption. The attribute "text_interpret" is either c("md", "html").

horizontal_line_above

Expression identifying a row where a horizontal line is placed above in the table.

Example from tbl_regression()

tbl_regression_ex$table_styling
#> $header
#> # A tibble: 24 x 7
#>    column   hide  align interpret_label label  interpret_spanni~ spanning_header
#>    <chr>    <lgl> <chr> <chr>           <chr>  <chr>             <chr>          
#>  1 variable TRUE  cent~ gt::md          varia~ gt::md            <NA>           
#>  2 var_lab~ TRUE  cent~ gt::md          var_l~ gt::md            <NA>           
#>  3 var_type TRUE  cent~ gt::md          var_t~ gt::md            <NA>           
#>  4 referen~ TRUE  cent~ gt::md          refer~ gt::md            <NA>           
#>  5 row_type TRUE  cent~ gt::md          row_t~ gt::md            <NA>           
#>  6 header_~ TRUE  cent~ gt::md          heade~ gt::md            <NA>           
#>  7 N_obs    TRUE  cent~ gt::md          N_obs  gt::md            <NA>           
#>  8 N        TRUE  cent~ gt::md          **N**  gt::md            <NA>           
#>  9 coeffic~ TRUE  cent~ gt::md          coeff~ gt::md            <NA>           
#> 10 coeffic~ TRUE  cent~ gt::md          coeff~ gt::md            <NA>           
#> # ... with 14 more rows
…
